{
   "host" :"github.disney.com",
   "distributionPackages" : [ "Main_Package", "Destructive" ],
   "sfdcRepository" : "WDPR-DVC/dvc-sfdc-deploy",
   "gitHubProtocol" :"ssh",
   "sandboxList" : [ "IDL","LATEST","STAGE","STRESS","SHADOW","TRAIN","PROD" ],
   "releaseManagers" : ["howej049"],
   "branches": {
      "develop":{
         "pullRequestSandbox" : "LATEST",
         "deploy_time": [
            {
               "sandbox": "LATEST",
               "time" : "H/5 * * * *",
               "PackageToValidate" : "Main_Package",
               "assignee": "howej049"
             }
          ],
          "unit_test_time": [
             {
                "sandbox": "LATEST",
                "time" : "H H * * 6",
                "PackageToValidate" : "Main_Package",
                "assignee": "howej049"
             }
          ]
      },
      "release":{
         "pullRequestSandbox" : "STAGE",
         "deploy_time": [
            {
               "sandbox": "STAGE",
               "time" : "H/5 * * * *",
               "PackageToValidate" : "Main_Package",
               "assignee": "howej049"
             },
            {
               "sandbox": "STRESS",
               "time" : "H H * * 6",
               "PackageToValidate" : "Main_Package",
               "assignee": "howej049"
             },
            {
               "sandbox": "TRN",
               "time" : "H H * * 6",
               "PackageToValidate" : "Main_Package",
               "assignee": "howej049"
             }
          ],
          "unit_test_time": [
             {
                "sandbox": "STRESS",
                "time" : "H H * * 6",
                "PackageToValidate" : "Main_Package",
                "assignee": "howej049"
             }
          ]
      },
      "master":{
         "pullRequestSandbox" : "PROD"
      }
   }
}
